﻿Apellido(s),Nombre,"Dirección de correo",Estado,"Comenzado el",Finalizado,"Tiempo requerido","Calificación/10,00","P. 1 /1,00","P. 2 /1,00","P. 3 /1,00","P. 4 /1,00","P. 5 /1,00","P. 6 /1,00","P. 7 /1,00","P. 8 /1,00","P. 9 /1,00","P. 10 /1,00"
"Jiménez-Mendaño de Fuentes",Guillermo,guillejimenez99@yahoo.es,Finalizado,"29 de septiembre de 2021  13:05","29 de septiembre de 2021  13:16","11 minutos 2 segundos","9,00","0,00","1,00","1,00","1,00","1,00","1,00","1,00","1,00","1,00","1,00"
"Riojo Fernández",Sebastián,sebastianriojo@gmail.com,Finalizado,"29 de septiembre de 2021  13:05","29 de septiembre de 2021  13:23","17 minutos 9 segundos","10,00","1,00","1,00","1,00","1,00","1,00","1,00","1,00","1,00","1,00","1,00"
"López Leganés",Guillermo,guille98leganes@gmail.com,Finalizado,"29 de septiembre de 2021  13:08","29 de septiembre de 2021  13:19","10 minutos 41 segundos","10,00","1,00","1,00","1,00","1,00","1,00","1,00","1,00","1,00","1,00","1,00"
Sebastián,Joel,joelscfs@gmail.com,Finalizado,"29 de septiembre de 2021  13:10","29 de septiembre de 2021  13:14","4 minutos 14 segundos","10,00","1,00","1,00","1,00","1,00","1,00","1,00","1,00","1,00","1,00","1,00"
"Fuentes  Soriano",Víctor,vicfuen02@gmail.com,Finalizado,"29 de septiembre de 2021  13:10","29 de septiembre de 2021  13:16","5 minutos 28 segundos","10,00","1,00","1,00","1,00","1,00","1,00","1,00","1,00","1,00","1,00","1,00"
"García-Duarte Sáenz",Javier,javigarciaduarte@gmail.com,Finalizado,"29 de septiembre de 2021  13:11","29 de septiembre de 2021  13:15","4 minutos 46 segundos","10,00","1,00","1,00","1,00","1,00","1,00","1,00","1,00","1,00","1,00","1,00"
"Calle Rivera",Geovanny,geovaxd@gmail.com,Finalizado,"29 de septiembre de 2021  13:11","29 de septiembre de 2021  13:20","9 minutos 8 segundos","8,00","1,00","1,00","1,00","1,00","1,00","1,00","0,00","1,00","0,00","1,00"
"Guerreiro Guzmán",Ángel,gg.angel94@gmail.com,Finalizado,"29 de septiembre de 2021  13:11","29 de septiembre de 2021  13:22","10 minutos 45 segundos","10,00","1,00","1,00","1,00","1,00","1,00","1,00","1,00","1,00","1,00","1,00"
"Altares Palacios",Iván,ivanaltares@gmail.com,Finalizado,"29 de septiembre de 2021  13:12","29 de septiembre de 2021  13:20","8 minutos 8 segundos","10,00","1,00","1,00","1,00","1,00","1,00","1,00","1,00","1,00","1,00","1,00"
"Sánchez Sánchez",Aarón,atleticoaaron@hotmail.com,Finalizado,"29 de septiembre de 2021  13:12","29 de septiembre de 2021  13:19","6 minutos 32 segundos","10,00","1,00","1,00","1,00","1,00","1,00","1,00","1,00","1,00","1,00","1,00"
"Tomé del Arco",David,david.tome.delarco@gmail.com,Finalizado,"29 de septiembre de 2021  13:12","29 de septiembre de 2021  13:26","13 minutos 28 segundos","10,00","1,00","1,00","1,00","1,00","1,00","1,00","1,00","1,00","1,00","1,00"
"Jesus Joia",Danilo,danyjoia@hotmail.com,Finalizado,"29 de septiembre de 2021  13:12","29 de septiembre de 2021  13:26","13 minutos 34 segundos","10,00","1,00","1,00","1,00","1,00","1,00","1,00","1,00","1,00","1,00","1,00"
"Eduardo Alvitres",Ángel,edui78@hotmail.com,Finalizado,"29 de septiembre de 2021  13:12","29 de septiembre de 2021  13:21","8 minutos 48 segundos","10,00","1,00","1,00","1,00","1,00","1,00","1,00","1,00","1,00","1,00","1,00"
"Bakhtaoui Dahraoui",Monsef,monsefjwahri@gmail.com,Finalizado,"29 de septiembre de 2021  13:12","29 de septiembre de 2021  13:20","7 minutos 52 segundos","10,00","1,00","1,00","1,00","1,00","1,00","1,00","1,00","1,00","1,00","1,00"
"Navarro Pashinian",Luis,luisnavpash1@gmail.com,Finalizado,"29 de septiembre de 2021  13:12","29 de septiembre de 2021  13:20","7 minutos 53 segundos","9,00","1,00","1,00","1,00","1,00","1,00","1,00","1,00","1,00","1,00","0,00"
"Sánchez Sánchez",Alberto,alberto_s.san@hotmail.com,Finalizado,"29 de septiembre de 2021  13:13","29 de septiembre de 2021  13:21","8 minutos 21 segundos","10,00","1,00","1,00","1,00","1,00","1,00","1,00","1,00","1,00","1,00","1,00"
"Promedio general",,,,,,,"9,75","0,94","1,00","1,00","1,00","1,00","1,00","0,94","1,00","0,94","0,94"
