nro;Apellido(s);Nombre;Tiempo requerido;Calificación/10,00
1;López Leganés;Guillermo;5 minutos 28 segundos;8
2;Tomé del Arco;David;10 minutos 18 segundos;9
4;Calle Rivera;Geovanny;10 minutos 37 segundos;9
5;Bakhtaoui Dahraoui;Monsef;4 minutos 7 segundos;8
6;Fuentes  Soriano;Víctor;6 minutos 45 segundos;10
7;Sebastián;Joel;4 minutos 25 segundos;9
8;Calvo Pereña;Marina;5 minutos 1 segundos;10
9;Jesus Joia;Danilo;10 minutos 48 segundos;9
10;Riojo Fernández;Sebastián;8 minutos 41 segundos;10
11;Guerreiro Guzmán;Ángel;4 minutos 48 segundos;10
12;Navarro Pashinian;Luis;5 minutos 38 segundos;6
13;Sánchez Sánchez;Aarón;7 minutos 51 segundos;9
14;Barreiro;Mauro;3 minutos 40 segundos;9
15;Altares Palacios;Iván;4 minutos 32 segundos;10
16;Jiménez-Mendaño de Fuentes;Guillermo;6 minutos 37 segundos;10
17;Eduardo Alvitres;Ángel;9 minutos 18 segundos;10
18;García-Duarte Sáenz;Javier;9 minutos 17 segundos;9
19;Sánchez Sánchez;Alberto;5 minutos 12 segundos;10
;Promedio general;;;8,17
