﻿Apellido(s),Nombre,"Dirección de correo",Estado,"Comenzado el",Finalizado,"Tiempo requerido","Calificación/10,00","P. 1 /1,00","P. 2 /1,00","P. 3 /1,00","P. 4 /1,00","P. 5 /1,00","P. 6 /1,00","P. 7 /1,00","P. 8 /1,00","P. 9 /1,00","P. 10 /1,00"
"Navarro Pashinian",Luis,luisnavpash1@gmail.com,Finalizado,"23 de septiembre de 2021  19:01","23 de septiembre de 2021  19:08","6 minutos 58 segundos","4,00","0,00","1,00","1,00","0,00","0,00","0,00","0,00","1,00","0,00","1,00"
"Tomé del Arco",David,david.tome.delarco@gmail.com,Finalizado,"23 de septiembre de 2021  19:01","23 de septiembre de 2021  19:17","15 minutos 18 segundos","6,00","1,00","1,00","0,00","0,00","0,00","1,00","1,00","1,00","0,00","1,00"
"Sánchez Sánchez",Aarón,atleticoaaron@hotmail.com,Finalizado,"23 de septiembre de 2021  19:01","23 de septiembre de 2021  19:07","5 minutos 40 segundos","9,00","1,00","1,00","1,00","1,00","1,00","0,00","1,00","1,00","1,00","1,00"
"Eduardo Alvitres",Ángel,edui78@hotmail.com,Finalizado,"23 de septiembre de 2021  19:01","23 de septiembre de 2021  19:13","11 minutos 55 segundos","7,00","0,00","1,00","1,00","1,00","1,00","0,00","0,00","1,00","1,00","1,00"
"Bakhtaoui Dahraoui",Monsef,monsefjwahri@gmail.com,Finalizado,"23 de septiembre de 2021  19:01","23 de septiembre de 2021  19:11","9 minutos 14 segundos","9,00","0,00","1,00","1,00","1,00","1,00","1,00","1,00","1,00","1,00","1,00"
Sebastián,Joel,joelscfs@gmail.com,Finalizado,"23 de septiembre de 2021  19:01","23 de septiembre de 2021  19:08","6 minutos 3 segundos","9,00","1,00","1,00","1,00","0,00","1,00","1,00","1,00","1,00","1,00","1,00"
"Jiménez-Mendaño de Fuentes",Guillermo,guillejimenez99@yahoo.es,Finalizado,"23 de septiembre de 2021  19:02","23 de septiembre de 2021  19:07","5 minutos 50 segundos","4,00","0,00","0,00","1,00","1,00","1,00","0,00","0,00","0,00","0,00","1,00"
"Calle Rivera",Geovanny,geovaxd@gmail.com,Finalizado,"23 de septiembre de 2021  19:02","23 de septiembre de 2021  19:05","3 minutos 27 segundos","6,00","1,00","0,00","1,00","1,00","0,00","1,00","1,00","1,00","0,00","0,00"
"García-Duarte Sáenz",Javier,javigarciaduarte@gmail.com,Finalizado,"23 de septiembre de 2021  19:02","23 de septiembre de 2021  19:08","6 minutos 37 segundos","5,00","0,00","1,00","1,00","0,00","0,00","1,00","0,00","1,00","1,00","0,00"
"Guerreiro Guzmán",Ángel,gg.angel94@gmail.com,Finalizado,"23 de septiembre de 2021  19:02","23 de septiembre de 2021  19:18","16 minutos 15 segundos","7,00","0,00","1,00","1,00","1,00","0,00","1,00","1,00","1,00","1,00","0,00"
"Fuentes  Soriano",Víctor,vicfuen02@gmail.com,Finalizado,"23 de septiembre de 2021  19:02","23 de septiembre de 2021  19:12","10 minutos 21 segundos","8,00","1,00","1,00","1,00","1,00","1,00","0,00","1,00","1,00","1,00","0,00"
"Riojo Fernández",Sebastián,sebastianriojo@gmail.com,Finalizado,"23 de septiembre de 2021  19:02","23 de septiembre de 2021  19:09","7 minutos 17 segundos","10,00","1,00","1,00","1,00","1,00","1,00","1,00","1,00","1,00","1,00","1,00"
"Altares Palacios",Iván,ivanaltares@gmail.com,Finalizado,"23 de septiembre de 2021  19:02","23 de septiembre de 2021  19:06","4 minutos 29 segundos","10,00","1,00","1,00","1,00","1,00","1,00","1,00","1,00","1,00","1,00","1,00"
Barreiro,Mauro,maurobn98@gmail.com,Finalizado,"23 de septiembre de 2021  19:02","23 de septiembre de 2021  19:10","8 minutos 10 segundos","9,00","1,00","0,00","1,00","1,00","1,00","1,00","1,00","1,00","1,00","1,00"
"Jesus Joia",Danilo,danyjoia@hotmail.com,Finalizado,"23 de septiembre de 2021  19:02","23 de septiembre de 2021  19:20","18 minutos 14 segundos","5,00","0,00","1,00","1,00","1,00","1,00","1,00","0,00","0,00","0,00","0,00"
"López Leganés",Guillermo,guille98leganes@gmail.com,Finalizado,"23 de septiembre de 2021  19:02","23 de septiembre de 2021  19:08","6 minutos 2 segundos","7,00","1,00","0,00","0,00","1,00","1,00","1,00","1,00","0,00","1,00","1,00"
"Sánchez Sánchez",Alberto,alberto_s.san@hotmail.com,Finalizado,"23 de septiembre de 2021  19:03","23 de septiembre de 2021  19:15","12 minutos 6 segundos","8,00","1,00","1,00","1,00","1,00","1,00","0,00","1,00","1,00","1,00","0,00"
"Calle Rivera",Geovanny,geovaxd@gmail.com,Finalizado,"23 de septiembre de 2021  19:07","23 de septiembre de 2021  19:10","3 minutos 41 segundos","4,00","1,00","1,00","0,00","0,00","0,00","0,00","1,00","1,00","0,00","0,00"
"Jiménez-Mendaño de Fuentes",Guillermo,guillejimenez99@yahoo.es,Finalizado,"23 de septiembre de 2021  19:08","23 de septiembre de 2021  19:12","4 minutos 32 segundos","8,00","1,00","1,00","1,00","1,00","1,00","0,00","1,00","0,00","1,00","1,00"
Sebastián,Joel,joelscfs@gmail.com,Finalizado,"23 de septiembre de 2021  19:08","23 de septiembre de 2021  19:12","3 minutos 32 segundos","7,00","1,00","1,00","1,00","1,00","0,00","1,00","0,00","1,00","0,00","1,00"
"García-Duarte Sáenz",Javier,javigarciaduarte@gmail.com,Finalizado,"23 de septiembre de 2021  19:09","23 de septiembre de 2021  19:12","3 minutos 3 segundos","9,00","1,00","1,00","1,00","1,00","1,00","1,00","1,00","1,00","1,00","0,00"
"Sánchez Sánchez",Aarón,atleticoaaron@hotmail.com,Finalizado,"23 de septiembre de 2021  19:09","23 de septiembre de 2021  19:13","4 minutos 8 segundos","7,00","1,00","1,00","0,00","1,00","1,00","1,00","1,00","0,00","1,00","0,00"
"Navarro Pashinian",Luis,luisnavpash1@gmail.com,Finalizado,"23 de septiembre de 2021  19:09","23 de septiembre de 2021  19:15","6 minutos 20 segundos","7,00","0,00","1,00","1,00","1,00","0,00","0,00","1,00","1,00","1,00","1,00"
"López Leganés",Guillermo,guille98leganes@gmail.com,Finalizado,"23 de septiembre de 2021  19:09","23 de septiembre de 2021  19:15","5 minutos 9 segundos","9,00","1,00","1,00","1,00","1,00","1,00","1,00","1,00","0,00","1,00","1,00"
"Riojo Fernández",Sebastián,sebastianriojo@gmail.com,Finalizado,"23 de septiembre de 2021  19:10","23 de septiembre de 2021  19:15","5 minutos 47 segundos","10,00","1,00","1,00","1,00","1,00","1,00","1,00","1,00","1,00","1,00","1,00"
Barreiro,Mauro,maurobn98@gmail.com,Finalizado,"23 de septiembre de 2021  19:11","23 de septiembre de 2021  19:15","4 minutos 50 segundos","9,00","1,00","1,00","1,00","1,00","1,00","1,00","1,00","1,00","0,00","1,00"
"Bakhtaoui Dahraoui",Monsef,monsefjwahri@gmail.com,Finalizado,"23 de septiembre de 2021  19:12","23 de septiembre de 2021  19:20","8 minutos 51 segundos","8,00","1,00","1,00","1,00","0,00","1,00","1,00","1,00","1,00","1,00","0,00"
"Calle Rivera",Geovanny,geovaxd@gmail.com,Finalizado,"23 de septiembre de 2021  19:12","23 de septiembre de 2021  19:14","2 minutos 33 segundos","7,00","1,00","1,00","0,00","1,00","1,00","1,00","1,00","1,00","0,00","0,00"
"Jiménez-Mendaño de Fuentes",Guillermo,guillejimenez99@yahoo.es,Finalizado,"23 de septiembre de 2021  19:13","23 de septiembre de 2021  19:15","1 minutos 59 segundos","10,00","1,00","1,00","1,00","1,00","1,00","1,00","1,00","1,00","1,00","1,00"
"Sánchez Sánchez",Aarón,atleticoaaron@hotmail.com,Finalizado,"23 de septiembre de 2021  19:14","23 de septiembre de 2021  19:18","4 minutos 24 segundos","7,00","1,00","1,00","1,00","1,00","0,00","1,00","0,00","1,00","1,00","0,00"
"López Leganés",Guillermo,guille98leganes@gmail.com,Finalizado,"23 de septiembre de 2021  19:15","23 de septiembre de 2021  19:24","8 minutos 40 segundos","8,00","1,00","1,00","1,00","0,00","1,00","0,00","1,00","1,00","1,00","1,00"
Barreiro,Mauro,maurobn98@gmail.com,Finalizado,"23 de septiembre de 2021  19:16","23 de septiembre de 2021  19:19","3 minutos 16 segundos","9,00","1,00","1,00","1,00","1,00","1,00","1,00","1,00","0,00","1,00","1,00"
"Sánchez Sánchez",Alberto,alberto_s.san@hotmail.com,Finalizado,"23 de septiembre de 2021  19:16","23 de septiembre de 2021  19:25","9 minutos 15 segundos","6,00","0,00","1,00","1,00","0,00","0,00","1,00","1,00","0,00","1,00","1,00"
"Riojo Fernández",Sebastián,sebastianriojo@gmail.com,Finalizado,"23 de septiembre de 2021  19:16","23 de septiembre de 2021  19:20","4 minutos 7 segundos","10,00","1,00","1,00","1,00","1,00","1,00","1,00","1,00","1,00","1,00","1,00"
"Eduardo Alvitres",Ángel,edui78@hotmail.com,Finalizado,"23 de septiembre de 2021  19:16","23 de septiembre de 2021  19:30","13 minutos 29 segundos","9,00","1,00","1,00","0,00","1,00","1,00","1,00","1,00","1,00","1,00","1,00"
"Navarro Pashinian",Luis,luisnavpash1@gmail.com,Finalizado,"23 de septiembre de 2021  19:17","23 de septiembre de 2021  19:22","4 minutos 49 segundos","9,00","1,00","1,00","1,00","1,00","1,00","1,00","1,00","1,00","0,00","1,00"
"Fuentes  Soriano",Víctor,vicfuen02@gmail.com,Finalizado,"23 de septiembre de 2021  19:18","23 de septiembre de 2021  19:24","6 minutos 19 segundos","9,00","0,00","1,00","1,00","1,00","1,00","1,00","1,00","1,00","1,00","1,00"
"Guerreiro Guzmán",Ángel,gg.angel94@gmail.com,Finalizado,"23 de septiembre de 2021  19:19","23 de septiembre de 2021  19:24","4 minutos 56 segundos","9,00","1,00","1,00","1,00","1,00","1,00","1,00","1,00","1,00","0,00","1,00"
"Jesus Joia",Danilo,danyjoia@hotmail.com,Finalizado,"23 de septiembre de 2021  19:20","23 de septiembre de 2021  19:36","15 minutos 42 segundos","5,00","0,00","1,00","0,00","1,00","1,00","0,00","0,00","0,00","1,00","1,00"
"Bakhtaoui Dahraoui",Monsef,monsefjwahri@gmail.com,Finalizado,"23 de septiembre de 2021  19:21","23 de septiembre de 2021  19:30","8 minutos 29 segundos","10,00","1,00","1,00","1,00","1,00","1,00","1,00","1,00","1,00","1,00","1,00"
"Guerreiro Guzmán",Ángel,gg.angel94@gmail.com,Finalizado,"23 de septiembre de 2021  19:24","23 de septiembre de 2021  19:28","3 minutos 42 segundos","10,00","1,00","1,00","1,00","1,00","1,00","1,00","1,00","1,00","1,00","1,00"
"Tomé del Arco",David,david.tome.delarco@gmail.com,Finalizado,"23 de septiembre de 2021  19:24","23 de septiembre de 2021  19:35","10 minutos 28 segundos","8,00","0,00","1,00","1,00","0,00","1,00","1,00","1,00","1,00","1,00","1,00"
"Sánchez Sánchez",Alberto,alberto_s.san@hotmail.com,Finalizado,"23 de septiembre de 2021  19:27","23 de septiembre de 2021  19:53","26 minutos 22 segundos","10,00","1,00","1,00","1,00","1,00","1,00","1,00","1,00","1,00","1,00","1,00"
"Eduardo Alvitres",Ángel,edui78@hotmail.com,Finalizado,"23 de septiembre de 2021  19:31","23 de septiembre de 2021  19:38","7 minutos 4 segundos","10,00","1,00","1,00","1,00","1,00","1,00","1,00","1,00","1,00","1,00","1,00"
"Jesus Joia",Danilo,danyjoia@hotmail.com,Finalizado,"23 de septiembre de 2021  19:36","23 de septiembre de 2021  19:47","10 minutos 57 segundos","9,00","1,00","1,00","1,00","1,00","0,00","1,00","1,00","1,00","1,00","1,00"
"Tomé del Arco",David,david.tome.delarco@gmail.com,Finalizado,"23 de septiembre de 2021  19:36","23 de septiembre de 2021  19:44","7 minutos 17 segundos","7,00","0,00","1,00","1,00","1,00","1,00","1,00","0,00","1,00","0,00","1,00"
"Promedio general",,,,,,,"7,89","0,72","0,91","0,85","0,80","0,76","0,76","0,80","0,80","0,74","0,74"
